[
  {
    "name":"document_id",
    "type":"STRING",
    "mode":"NULLABLE",
    "description":"Identificador do documento"
  },
  {
    "name":"paciente_id",
    "type":"STRING",
    "mode":"NULLABLE",
    "description":"Identificador do vacinado(a)"
  },
  {
    "name":"paciente_dataNascimento",
    "type":"DATE",
    "mode":"NULLABLE",
    "description":"Data de nascimento do vacinado(a)"
  },
  {
    "name":"paciente_idade",
    "type":"STRING",
    "mode":"NULLABLE",
    "description":"Idade do vacinado(a)"
  },
  {
    "name":"paciente_enumSexoBiologico",
    "type":"STRING",
    "mode":"NULLABLE",
    "description":"Sexo do vacinado(a)"
  },
  {
    "name":"paciente_racaCor_valor",
    "type":"STRING",
    "mode":"NULLABLE",
    "description":"Descrição da raça/cor do vacinado(a)"
  },
  {
    "name":"paciente_endereco_uf",
    "type":"STRING",
    "mode":"NULLABLE",
    "description":"Sigla da UF de endereço do vacinado(a)"
  },
  {
    "name":"vacina_fabricante_nome",
    "type":"STRING",
    "mode":"NULLABLE",
    "description":"Nome do fabricante/Fornecedor"
  },
  {
    "name":"vacina_lote",
    "type":"STRING",
    "mode":"NULLABLE",
    "description":"Número do lote da vacina"
  },
  {
    "name":"vacina_dataAplicacao",
    "type":"DATETIME",
    "mode":"NULLABLE",
    "description":"Data de aplicação da vacina"
  },
  {
    "name":"data_importacao_rnds",
    "type":"DATETIME",
    "mode":"NULLABLE",
    "description":"Data da importação para rnds"
  }
]